{
    "openapi": "3.0.0",
    "servers": [
        {
            "url": "http://localhost:3000",
            "description": "API Gateway",
            "variables": {}
        }
    ],
    "info": {
        "version": "4bdab3e9-194c-4add-ad42-2a2fe98b96ad",
        "title": "khazna_test_task",
        "description": "",
        "termsOfService": "",
        "contact": {},
        "license": {
            "name": ""
        }
    },
    "paths": {
        "/users/register": {
            "post": {
                "summary": "Register User",
                "description": "This API is used to register user",
                "operationId": "RegisterUser",
                "parameters": [],
                "requestBody": {
                    "description": "This API is used to register user",
                    "required": true,
                    "content": {
                        "application/json": {
                            "schema": {
                                "type": "object",
                                "properties": {
                                    "email": {
                                        "type": "string",
                                        "example": "almalkymomen@gmail.com"
                                    },
                                    "password": {
                                        "type": "string",
                                        "example": "qwerty12345"
                                    },
                                    "balance": {
                                        "type": "number",
                                        "format": "double",
                                        "example": 1000.00
                                    }
                                }
                            }
                        }
                    }
                },
                "responses": {
                    "200": {
                        "description": "",
                        "headers": {}
                    }
                },
                "tags": [
                    "users"
                ]
            }
        },
        "/users/login": {
            "post": {
                "summary": "Login User",
                "description": "This API is used to login user",
                "operationId": "LoginUser",
                "parameters": [],
                "requestBody": {
                    "description": "This API is used to login user",
                    "required": true,
                    "content": {
                        "application/json": {
                            "schema": {
                                "type": "object",
                                "properties": {
                                    "email": {
                                        "type": "string",
                                        "example": "almalkymomen@gmail.com"
                                    },
                                    "password": {
                                        "type": "string",
                                        "example": "qwerty12345"
                                    }
                                }
                            }
                        }
                    }
                },
                "responses": {
                    "200": {
                        "description": "",
                        "headers": {}
                    }
                },
                "tags": [
                    "users"
                ]
            }
        },
        "/users/profile": {
            "get": {
                "summary": "Get Profile",
                "description": "This API is used to get user profile",
                "operationId": "Getusers",
                "parameters": [],
                "responses": {
                    "200": {
                        "description": "",
                        "headers": {}
                    }
                },
                "tags": [
                    "users"
                ]
            }
        },
        "/users/balance": {
            "post": {
                "summary": "Balance deduct or add based on action type",
                "description": "Balance deduct or add based on action type",
                "operationId": "balanceAction",
                "parameters": [],
                "requestBody": {
                    "description": "This API use for Balance deduct or add based on action type",
                    "required": true,
                    "content": {
                        "application/json": {
                            "schema": {
                                "type": "object",
                                "properties": {
                                    "user_id": {
                                        "type": "number",
                                        "format": "int32",
                                        "example": 1
                                    },
                                    "action": {
                                        "type": "string",
                                        "example": "add"
                                    },
                                    "amount": {
                                        "type": "number",
                                        "format": "double",
                                        "example": 200.00
                                    }
                                }
                            }
                        }
                    }
                },
                "responses": {
                    "200": {
                        "description": "",
                        "headers": {}
                    }
                },
                "tags": [
                    "users"
                ]
            }
        },
        "/products": {
            "post": {
                "summary": "Get list of products based on user balance and search by filters",
                "description": "Get list of products based on user balance and search by filters",
                "operationId": "Getlistofproducts",
                "parameters": [],
                "requestBody": {
                    "description": "Get list of products based on user balance and search by filters",
                    "required": true,
                    "content": {
                        "application/json": {
                            "schema": {
                                "type": "object",
                                "properties": {
                                    "name": {
                                        "type": "string",
                                        "example": "iphone"
                                    },
                                    "category_id": {
                                        "type": "number",
                                        "format": "int32",
                                        "example": 2
                                    },
                                    "brand_id": {
                                        "type": "number",
                                        "format": "int32",
                                        "example": 2
                                    }
                                }
                            }
                        }
                    }
                },
                "responses": {
                    "200": {
                        "description": "",
                        "headers": {}
                    }
                },
                "tags": [
                    "products"
                ]
            }
        },
        "/orders": {
            "get": {
                "summary": "Get Orders",
                "description": "This API is used to get orders",
                "operationId": "Getorders",
                "parameters": [],
                "responses": {
                    "200": {
                        "description": "",
                        "headers": {}
                    }
                },
                "tags": [
                    "orders"
                ]
            },
            "post": {
                "summary": "Create new order",
                "description": "Create new order",
                "operationId": "CreateNewOrder",
                "parameters": [],
                "requestBody": {
                    "description": "This API is used to create user",
                    "required": true,
                    "content": {
                        "application/json": {
                            "schema": {
                                "type": "string",
                                "example": {
                                    "user_id": 1,
                                    "products": [
                                        {
                                            "id": 1,
                                            "price": 100
                                        },
                                        {
                                            "id": 2,
                                            "price": 200
                                        },
                                        {
                                            "id": 3,
                                            "price": 100
                                        }
                                    ]
                                }
                            }
                        }
                    }
                },
                "responses": {
                    "200": {
                        "description": "",
                        "headers": {}
                    }
                },
                "tags": [
                    "orders"
                ]
            }
        },
        "/orders/cancel": {
            "post": {
                "summary": "Cancel Order",
                "description": "Cancel Order",
                "operationId": "CancelOrder",
                "parameters": [],
                "requestBody": {
                    "description": "Cancel Order",
                    "required": true,
                    "content": {
                        "application/json": {
                            "schema": {
                                "type": "object",
                                "properties": {
                                    "order_id": {
                                        "type": "number",
                                        "format": "int32",
                                        "example": 1
                                    }
                                }
                            }
                        }
                    }
                },
                "responses": {
                    "200": {
                        "description": "",
                        "headers": {}
                    }
                },
                "tags": [
                    "orders"
                ]
            }
        }
    },
    "components": {
        "securitySchemes": {
            "bearer": {
                "type": "http",
                "scheme": "bearer"
            }
        },
        "parameters": {
            "": {
                "name": "",
                "in": "header",
                "required": true,
                "style": "simple",
                "schema": {
                    "type": "number"
                }
            }
        }
    },
    "security": [
        {
            "bearer": []
        }
    ],
    "tags": [],
    "externalDocs": {
        "url": "",
        "description": ""
    }
}